{
  "project_info": {
    "project_number": "24775601215",
    "firebase_url": "https://flutter-with-fire-1aa65.firebaseio.com",
    "project_id": "flutter-with-fire-1aa65",
    "storage_bucket": "flutter-with-fire-1aa65.appspot.com"
  },
  "client": [
    {
      "client_info": {
        "mobilesdk_app_id": "1:24775601215:android:f721bd32c8e72ecb259c8a",
        "android_client_info": {
          "package_name": "com.jumalk.flutter_with_fire"
        }
      },
      "oauth_client": [
        {
          "client_id": "24775601215-3sci0c5b0ut6ik4ohsbn4ufcovijluco.apps.googleusercontent.com",
          "client_type": 3
        }
      ],
      "api_key": [
        {
          "current_key": "AIzaSyDlwlHJTLzQ9KbyC4Fv-oBnMXlicMFqzWI"
        }
      ],
      "services": {
        "appinvite_service": {
          "other_platform_oauth_client": [
            {
              "client_id": "24775601215-3sci0c5b0ut6ik4ohsbn4ufcovijluco.apps.googleusercontent.com",
              "client_type": 3
            }
          ]
        }
      }
    }
  ],
  "configuration_version": "1"
}